LSD/trabalho5/parte1/simulation/qsim/CmpN_Demo.msim.vcd
$comment
	File created using the following command:
		vcd file CmpN_Demo.msim.vcd -direction
$end
$date
	Thu Mar 28 09:33:11 2019
$end
$version
	ModelSim Version 10.5b
$end
$timescale
	1ps
$end

$scope module cmpn_vhd_vec_tst $end
$var wire 1 ! equal $end
$var wire 1 " input0 [3] $end
$var wire 1 # input0 [2] $end
$var wire 1 $ input0 [1] $end
$var wire 1 % input0 [0] $end
$var wire 1 & input1 [3] $end
$var wire 1 ' input1 [2] $end
$var wire 1 ( input1 [1] $end
$var wire 1 ) input1 [0] $end
$var wire 1 * ltSigned $end
$var wire 1 + ltUnsigned $end
$var wire 1 , notEqual $end

$scope module i1 $end
$var wire 1 - gnd $end
$var wire 1 . vcc $end
$var wire 1 / unknown $end
$var wire 1 0 devoe $end
$var wire 1 1 devclrn $end
$var wire 1 2 devpor $end
$var wire 1 3 ww_devoe $end
$var wire 1 4 ww_devclrn $end
$var wire 1 5 ww_devpor $end
$var wire 1 6 ww_input0 [3] $end
$var wire 1 7 ww_input0 [2] $end
$var wire 1 8 ww_input0 [1] $end
$var wire 1 9 ww_input0 [0] $end
$var wire 1 : ww_input1 [3] $end
$var wire 1 ; ww_input1 [2] $end
$var wire 1 < ww_input1 [1] $end
$var wire 1 = ww_input1 [0] $end
$var wire 1 > ww_equal $end
$var wire 1 ? ww_notEqual $end
$var wire 1 @ ww_ltSigned $end
$var wire 1 A ww_ltUnsigned $end
$var wire 1 B \equal~output_o\ $end
$var wire 1 C \notEqual~output_o\ $end
$var wire 1 D \ltSigned~output_o\ $end
$var wire 1 E \ltUnsigned~output_o\ $end
$var wire 1 F \input0[1]~input_o\ $end
$var wire 1 G \input0[2]~input_o\ $end
$var wire 1 H \input1[2]~input_o\ $end
$var wire 1 I \input1[1]~input_o\ $end
$var wire 1 J \Equal0~0_combout\ $end
$var wire 1 K \input0[0]~input_o\ $end
$var wire 1 L \input0[3]~input_o\ $end
$var wire 1 M \input1[3]~input_o\ $end
$var wire 1 N \input1[0]~input_o\ $end
$var wire 1 O \Equal0~1_combout\ $end
$var wire 1 P \Equal0~2_combout\ $end
$var wire 1 Q \LessThan0~0_combout\ $end
$var wire 1 R \LessThan0~1_combout\ $end
$var wire 1 S \LessThan0~2_combout\ $end
$var wire 1 T \LessThan1~0_combout\ $end
$var wire 1 U \ALT_INV_Equal0~2_combout\ $end
$upscope $end
$upscope $end
$enddefinitions $end
#0
$dumpvars
0!
1*
1+
1,
0-
1.
x/
10
11
12
13
14
15
0>
1?
1@
1A
0B
1C
1D
1E
1F
0G
1H
0I
0J
0K
1L
1M
1N
0O
0P
1Q
1R
1S
1T
1U
1"
0#
1$
0%
1&
1'
0(
1)
16
07
18
09
1:
1;
0<
1=
$end
#40000
0"
1#
0$
0&
0'
1(
08
17
06
1<
0;
0:
0M
0H
1I
0L
1G
0F
0Q
0R
0S
0T
0E
0D
0A
0@
0+
0*
#80000
1"
0#
1$
1'
1%
0)
19
18
07
16
0=
1;
1H
0N
1L
0G
1F
1K
1S
1Q
1R
1D
1@
1*
#120000
1#
0$
1&
08
17
1:
1M
1G
0F
1T
1E
1A
1+
#160000
1$
0&
0"
0'
1)
18
06
1=
0;
0:
0M
0H
1N
0L
1F
0Q
1O
0R
0S
0T
0E
0D
0A
0@
0+
0*
#200000
0$
1'
0%
09
08
1;
1H
0F
0K
0O
1Q
1R
1S
1T
1E
1D
1A
1@
1+
1*
#240000
1$
1"
18
16
1L
1F
1J
0Q
0T
0E
0A
0+
#280000
0$
08
0F
0J
1Q
#320000
1$
0'
1%
1&
0#
19
18
07
0;
1:
1M
0H
0G
1F
1K
1J
0Q
1O
1T
1P
0R
0U
0S
0T
1E
1A
1B
1+
0C
1>
0E
0D
0?
1!
0A
0@
0,
0+
0*
#360000
0$
1#
0"
0(
08
17
06
0<
0I
0L
1G
0F
0O
1T
0J
0P
1U
1E
1A
0B
1+
1C
0>
1?
0!
1,
#400000
1$
0#
1(
1'
0%
09
18
07
1<
1;
1H
1I
0G
1F
0K
1Q
1R
#440000
0$
1#
0'
1"
0&
0)
08
17
16
0=
0;
0:
0M
0H
0N
1L
1G
0F
0Q
1S
0T
0R
0E
1D
0A
1@
0+
1*
#480000
1'
0"
1&
1)
0(
1%
1=
0<
1;
1:
19
06
0L
1K
1M
1H
0I
1N
1J
0S
1T
1E
0D
1A
0@
1+
0*
#520000
0&
1(
0#
1<
0:
07
0G
0M
1I
1O
0T
0J
1Q
1R
1S
1T
0E
0A
0+
1E
1D
1A
1@
1+
1*
#560000
1&
0'
1"
1$
0;
1:
18
16
1L
1F
1M
0H
1J
0Q
1P
0R
0U
0S
0T
1B
0C
1>
0E
0D
0?
1!
0A
0@
0,
0+
0*
#600000
0&
1'
0$
0(
1#
0<
1;
0:
08
17
1G
0F
0M
1H
0I
0O
1S
0P
1U
1D
1@
0B
1*
1C
0>
1?
0!
1,
#640000
1&
0'
0"
0%
0;
1:
09
06
0L
0K
1M
0H
0J
1R
0S
1T
0R
1E
0D
1A
0@
1+
0*
#680000
0&
1'
1%
0)
0=
1;
0:
19
1K
0M
1H
0N
1J
0T
0E
0A
0+
#720000
0'
1)
1"
1(
1=
1<
0;
16
1L
0H
1I
1N
0J
1S
1D
1@
1*
#760000
0(
1&
0%
0<
1:
09
0K
1M
0I
0S
0D
0@
0*
#800000
0&
1%
1'
0)
0"
1$
0#
0=
1;
0:
19
18
07
06
0L
0G
1F
1K
0M
1H
0N
1Q
1R
1S
1T
1E
1D
1A
1@
1+
1*
#840000
1&
0%
0'
1)
1"
1#
1(
1=
1<
0;
1:
09
17
16
1L
1G
0K
1M
0H
1I
1N
0Q
0R
0S
0T
0E
0D
0A
0@
0+
0*
#880000
0&
1%
1'
0(
0$
0<
1;
0:
19
08
0F
1K
0M
1H
0I
1S
1J
1D
1@
1*
#920000
0%
0#
09
07
0G
0K
1R
0J
1Q
#960000
1#
0'
1$
0)
0"
18
17
06
0=
0;
0H
0N
0L
1G
1F
1T
1O
0Q
0R
0S
0T
1E
1A
1+
0E
0D
0A
0@
0+
0*
